%YAML 1.1
%TAG !u! tag:unity3d.com,2011:
--- !u!114 &11400000
MonoBehaviour:
  m_ObjectHideFlags: 0
  m_CorrespondingSourceObject: {fileID: 0}
  m_PrefabInstance: {fileID: 0}
  m_PrefabAsset: {fileID: 0}
  m_GameObject: {fileID: 0}
  m_Enabled: 1
  m_EditorHideFlags: 0
  m_Script: {fileID: 11500000, guid: ba8a0e8aaf126b141a4d36c872b79bcd, type: 3}
  m_Name: Basic
  m_EditorClassIdentifier: 
  version: 1.0
  author: Magique Productions, Ltd.
  description: Spawner Database for Basic Demo Scene
  timeOfDayData:
  - timeOfDayName: Anytime
    startTime: 0
    endTime: 23.99
  biomeSpawnData:
  - biomeName: Ignore Biomes
    timeOfDaySpawns:
      keys:
      - Anytime
      values:
      - spawnInfoData:
        - spawnType: 0
          prefab: {fileID: 3267362719257062431, guid: 971cf8f3866601a40accbb6df345066b,
            type: 3}
          herd: {fileID: 0}
          spawnCategory: Default
          variantsName: 
          prefabVariants: []
          probability: 70
          populationCap: 20
          ignorePlayerFOV: 0
          reusable: 1
          minScale: 1
          maxScale: 1
          overrideElevation: 0
          minElevation: 0
          maxElevation: 1000
          overrideSlopeAngle: 0
          minSlopeAngle: 0
          maxSlopeAngle: 45
          spawnInAir: 0
          minAltitude: 10
          maxAltitude: 50
          spawnRot: {x: 0, y: 0, z: 0, w: 1}
          textureRules: []
          weatherRules: []
          seasonRules: []
          globalSnowRules: []
          questRules: []
          proximityRules: []
          disable: 0
          spawnGuid: 03f5f0e7-b554-405c-858d-9b9e6b62e429
          spawnAreaGuid: 
          waveSpawnerGuid: 
          waveItemGuid: 
          randomChance: 0
          herdID: 0
          markPersistent: 0
          ignoreRaycast: 0
          textureSelected: 0
          texRuleSelected: 0
          weatherRuleSelected: 0
          seasonRuleSelected: 0
          snowRuleSelected: 0
          questRuleSelected: 0
          proximityRuleSelected: 0
          texFilterFoldoutState: 0
          weatherFilterFoldoutState: 0
          seasonFilterFoldoutState: 0
          globalFilterSnowFoldoutState: 0
          questFilterFoldoutState: 0
          proximityFilterFoldoutState: 0
          proximitySpawnsFoldoutState: 0
          variantsFoldoutState: 0
          hideSpawn: 0
          showFilters: 1
    disabled: 0
  areaSpawnData: []
  proximitySpawns:
    keys: []
    values: []
  spawnCategories:
  - categoryName: Default
    maxSpawns: 50
