%YAML 1.1
%TAG !u! tag:unity3d.com,2011:
--- !u!114 &11400000
MonoBehaviour:
  m_ObjectHideFlags: 0
  m_CorrespondingSourceObject: {fileID: 0}
  m_PrefabInstance: {fileID: 0}
  m_PrefabAsset: {fileID: 0}
  m_GameObject: {fileID: 0}
  m_Enabled: 1
  m_EditorHideFlags: 0
  m_Script: {fileID: 11500000, guid: 0492984a08f53c140a3fbb1193f25faa, type: 3}
  m_Name: Herd-WanderAI
  m_EditorClassIdentifier: 
  herdName: Wander AI
  herdPrefabs:
  - spawnType: 0
    prefab: {fileID: 3267362719257062431, guid: 971cf8f3866601a40accbb6df345066b,
      type: 3}
    herd: {fileID: 0}
    spawnCategory: Default
    variantsName: 
    prefabVariants: []
    probability: 80
    populationCap: 25
    ignoreTotalSpawns: 0
    ignorePlayerFOV: 0
    reusable: 1
    minScale: 0.65
    maxScale: 0.75
    overrideElevation: 0
    minElevation: 0
    maxElevation: 1000
    overrideSlopeAngle: 0
    minSlopeAngle: 0
    maxSlopeAngle: 45
    spawnInAir: 0
    minAltitude: 10
    maxAltitude: 50
    spawnRot: {x: 0, y: 0, z: 0, w: 1}
    textureRules: []
    weatherRules: []
    seasonRules: []
    globalSnowRules: []
    questRules: []
    proximityRules: []
    disable: 0
    spawnGuid: 
    spawnAreaGuid: 
    waveSpawnerGuid: 
    waveItemGuid: 
    randomChance: 0
    markPersistent: 0
    ignoreRaycast: 0
    textureSelected: 0
    texRuleSelected: 0
    weatherRuleSelected: 0
    seasonRuleSelected: 0
    snowRuleSelected: 0
    questRuleSelected: 0
    proximityRuleSelected: 0
    texFilterFoldoutState: 0
    weatherFilterFoldoutState: 0
    seasonFilterFoldoutState: 0
    globalFilterSnowFoldoutState: 0
    questFilterFoldoutState: 0
    proximityFilterFoldoutState: 0
    proximitySpawnsFoldoutState: 0
    variantsFoldoutState: 0
    hideSpawn: 0
    showFilters: 1
  - spawnType: 0
    prefab: {fileID: 3267362719257062431, guid: 6a2525210e10c894b8d179ba84885497,
      type: 3}
    herd: {fileID: 0}
    spawnCategory: Default
    variantsName: 
    prefabVariants: []
    probability: 50
    populationCap: 10
    ignoreTotalSpawns: 0
    ignorePlayerFOV: 0
    reusable: 1
    minScale: 0.8
    maxScale: 1.2
    overrideElevation: 0
    minElevation: 0
    maxElevation: 1000
    overrideSlopeAngle: 0
    minSlopeAngle: 0
    maxSlopeAngle: 45
    spawnInAir: 0
    minAltitude: 10
    maxAltitude: 50
    spawnRot: {x: 0, y: 0, z: 0, w: 1}
    textureRules: []
    weatherRules: []
    seasonRules: []
    globalSnowRules: []
    questRules: []
    proximityRules: []
    disable: 0
    spawnGuid: 
    spawnAreaGuid: 
    waveSpawnerGuid: 
    waveItemGuid: 
    randomChance: 0
    markPersistent: 0
    ignoreRaycast: 0
    textureSelected: 0
    texRuleSelected: 0
    weatherRuleSelected: 0
    seasonRuleSelected: 0
    snowRuleSelected: 0
    questRuleSelected: 0
    proximityRuleSelected: 0
    texFilterFoldoutState: 0
    weatherFilterFoldoutState: 0
    seasonFilterFoldoutState: 0
    globalFilterSnowFoldoutState: 0
    questFilterFoldoutState: 0
    proximityFilterFoldoutState: 0
    proximitySpawnsFoldoutState: 0
    variantsFoldoutState: 0
    hideSpawn: 0
    showFilters: 1
  - spawnType: 0
    prefab: {fileID: 3267362719257062431, guid: bf3f55a6bc9841d43b706afd6e994c9a,
      type: 3}
    herd: {fileID: 0}
    spawnCategory: Default
    variantsName: 
    prefabVariants: []
    probability: 35
    populationCap: 5
    ignoreTotalSpawns: 0
    ignorePlayerFOV: 0
    reusable: 1
    minScale: 0.25
    maxScale: 0.5
    overrideElevation: 0
    minElevation: 0
    maxElevation: 1000
    overrideSlopeAngle: 0
    minSlopeAngle: 0
    maxSlopeAngle: 45
    spawnInAir: 0
    minAltitude: 10
    maxAltitude: 50
    spawnRot: {x: 0, y: 0, z: 0, w: 1}
    textureRules: []
    weatherRules: []
    seasonRules: []
    globalSnowRules: []
    questRules: []
    proximityRules: []
    disable: 0
    spawnGuid: 
    spawnAreaGuid: 
    waveSpawnerGuid: 
    waveItemGuid: 
    randomChance: 0
    markPersistent: 0
    ignoreRaycast: 0
    textureSelected: 0
    texRuleSelected: 0
    weatherRuleSelected: 0
    seasonRuleSelected: 0
    snowRuleSelected: 0
    questRuleSelected: 0
    proximityRuleSelected: 0
    texFilterFoldoutState: 0
    weatherFilterFoldoutState: 0
    seasonFilterFoldoutState: 0
    globalFilterSnowFoldoutState: 0
    questFilterFoldoutState: 0
    proximityFilterFoldoutState: 0
    proximitySpawnsFoldoutState: 0
    variantsFoldoutState: 0
    hideSpawn: 0
    showFilters: 1
  minPopulation: 5
  maxPopulation: 10
  spawnRadius: 3
  foldoutState: 0
