%YAML 1.1
%TAG !u! tag:unity3d.com,2011:
--- !u!1045 &1
EditorBuildSettings:
  m_ObjectHideFlags: 0
  serializedVersion: 2
  m_Scenes:
  - enabled: 0
    path: Assets/MFPS/Scenes/MainMenu.unity
    guid: fcfe9637e4043474a98d431ae71e26c2
  - enabled: 0
    path: Assets/MFPS/Scenes/ExampleLevel.unity
    guid: 7b433244bb0354246a7c6a8c682e5441
  m_configObjects: {}
